{
  "type": "service_account",
  "project_id": "test-nextjs-ep1",
  "private_key_id": "fa64ba47ad4d831fd5fde57b5420cafba87f82a7",
  "private_key": "-----BEGIN PRIVATE KEY-----\nMIIEvgIBADANBgkqhkiG9w0BAQEFAASCBKgwggSkAgEAAoIBAQDlEkxKKOHUgfto\nQCY8BUWgdH+USvcgm7a8Om0bmNZyRafNUnGNlwjW4XI6AxdXJ7Nlk7pIf8hcx2k/\nloqog5oV42YyoO3HCe7YzvC5fzmHZutXpDOw6YuXAdQSxVDIDBu7uMAQt81fsykh\nzkd3lU81hAVFisT0l3kdh0VL91jnXkPRrJc1KT3O7Z0tDiX4npKmlk4Fz2u1Hemv\naM5zicXLxC0NdPgQs2SzCDVceEhIM3iWYKhOtT/c8Nvba4Se0Q0NvyujgpJJyg2q\nMZf020VebC27S5uP26Vl7cmy3tLG+vTXvhDJzlTV9sBaGfyGoJeDyYblhdTNrXnS\n02YScfG1AgMBAAECggEAFUeF3r29fMg2WpDa/Ghg927bCyOLoXPVndavnAiuox7l\nX6Vw9v44y/1VZx4yZN5DRARdIa79JeFAXa/WYaEYB0CAleNtMzgw/+L5acHvziw5\nYILYam7HkNeSo8vAnVTCnsWi0erBIUq7X3CSIwGzwfzpoHQrp60KizutrEjl8Vgb\nZsIfK9h0Nu5iHF8iBrRIWFnkTcFm4aGiwO7QwZ7WU9vBgAma2fZ+9Wj8vXBqTn3f\nRR3+iHsF2F6E8oBqHdSwVN4a7dqfTxw3y7xtQKFdBsfJn38jLFQR2fmv8wpbjgsA\nw1Rtmq1gy5UqYuwrnlTo5LX4U67kahPtvP7GK+zoYQKBgQDzWztTYa/eEFJtVufU\nhbNz/LDBocnV7ZPmUATZM1SUTOdQMdKrBRg/pPApaZHO8E2D6cp/S0ytVB+HNUPQ\n5bz/HzjzUEwTHkI9zb/ZYg577brFJ24P1pfPlFcm8JUyahj5FG7/iDRqc1sdDKbs\n/9X2QkYoJggboQA2gazI9m7qCwKBgQDw+RHQhspxmX42ctwKjz9Cdqt98Lu39vMf\nL45F9+YkQzuAhmT0bBiVP4wDmuIciwYCASNLY+PD17Aj1AQvl30WnNhPXsDgUQ8X\nLgMHBegiPl3255jO25wMZcqyXvPnU4YyVGpGyAkeJnprdN5u9XHaYCxeAXVPKvr6\nnakA6BOrPwKBgEFUyrZ10Trycs57uD0rr6OBwQoanw7Zew0nikWtLBWsF6VF2uKi\nuYHMi9TyTHybspOpXf2Sf4FAxj4MJKqeIoDzJtzbP7EaPHpPFCQN2QmYJr3q+fcy\niwrlLgh8KfGg3hdwTuQ28qtpUJqZ3O5fOFemLyN0IlUYgfAgG/zPe7NFAoGBAKhM\njJCjU4j7txa4Kc6GNZxp3WRcWf8mTq8dO7TKasYw3sHpG2FKjfDPLS7nYbylrFCC\nEvB4l38UiUS8sx+6IfdFHB5zAyqn8m4yCJNDINmpzV7Aag0vfFF8VpE1mAucXkGQ\ni5lb5GJWZXHfcer1KctnGBWf1xqv3hJjQsILVJFpAoGBANVRgVwcqrWTgoNKGrXe\neQXYTlRQQmylBczRwovahwYANLhC4ksn8mfg4FEXRvx7WvCUaCptydScb351lBpn\nwSUf69uY+xcV0MZeLdW1Vi7rhjzxfvWb/+yDANpSfqXF/UNFrFd9JYL0d39cGM1n\nJgDrY5Vr9k4jJyOoHhZgT4AG\n-----END PRIVATE KEY-----\n",
  "client_email": "firebase-adminsdk-alus3@test-nextjs-ep1.iam.gserviceaccount.com",
  "client_id": "115655539989512686316",
  "auth_uri": "https://accounts.google.com/o/oauth2/auth",
  "token_uri": "https://oauth2.googleapis.com/token",
  "auth_provider_x509_cert_url": "https://www.googleapis.com/oauth2/v1/certs",
  "client_x509_cert_url": "https://www.googleapis.com/robot/v1/metadata/x509/firebase-adminsdk-alus3%40test-nextjs-ep1.iam.gserviceaccount.com",
  "universe_domain": "googleapis.com"
}
